…
# Diagnostics

Look at residuals.

``` r
nyc_airbnb |> 
  modelr::add_residuals(fit) |> 
  modelr::add_predictions(fit)
```

    ## # A tibble: 40,492 × 7
    ##    price stars borough room_type       neighbourhood  resid  pred
    ##    <dbl> <dbl> <fct>   <fct>           <chr>          <dbl> <dbl>
    ##  1    99   5   Bronx   Private room    City Island     9.47  89.5
    ##  2   200  NA   Bronx   Private room    City Island    NA     NA  
    ##  3   300  NA   Bronx   Entire home/apt City Island    NA     NA  
    ##  4   125   5   Bronx   Entire home/apt City Island    35.5   89.5
    ##  5    69   5   Bronx   Private room    City Island   -20.5   89.5
    ##  6   125   5   Bronx   Entire home/apt City Island    35.5   89.5
    ##  7    85   5   Bronx   Entire home/apt City Island    -4.53  89.5
    ##  8    39   4.5 Bronx   Private room    Allerton      -34.5   73.5
    ##  9    95   5   Bronx   Entire home/apt Allerton        5.47  89.5
    ## 10   125   4.5 Bronx   Entire home/apt Allerton       51.5   73.5
    ## # ℹ 40,482 more rows
…
